<svg width="45" height="50" viewBox="0 0 45 50" fill="none" xmlns="http://www.w3.org/2000/svg">
<path d="M20.6552 49.8751C20.9328 50.0416 21.266 50.0416 21.5991 49.8751C24.4864 48.4314 40.1999 39.6585 42.0877 15.7829L38.9228 18.9478C36.2576 37.271 24.7085 44.9889 21.0994 46.9878C17.0461 44.7668 3.44253 35.7163 2.77624 12.729L21.0994 3.06774L36.4797 11.1743L38.5341 9.11993L21.5991 0.124931C21.266 -0.0416435 20.9328 -0.0416435 20.5997 0.124931L0.555247 10.7301C0.222099 10.8967 0 11.2854 0 11.6741C0.277624 38.6591 17.6013 48.3759 20.6552 49.8751Z" fill="url(#paint0_linear)"/>
<path d="M14.7695 23.3342C14.2142 22.7789 13.3258 22.7789 12.8261 23.3342C12.2709 23.8894 12.2709 24.7778 12.8261 25.2776L20.1554 32.6068C20.7106 33.1621 21.599 33.1621 22.0987 32.6068L43.9199 10.7856C44.4752 10.2304 44.4752 9.34196 43.9199 8.84224C43.3647 8.34251 42.4763 8.28699 41.9766 8.84224L21.1548 29.664L14.7695 23.3342Z" fill="url(#paint1_linear)"/>
<defs>
<linearGradient id="paint0_linear" x1="-3.13578e-07" y1="25" x2="51.5" y2="25" gradientUnits="userSpaceOnUse">
<stop stop-color="white"/>
<stop offset="1" stop-color="white" stop-opacity="0"/>
</linearGradient>
<linearGradient id="paint1_linear" x1="11.9995" y1="21.0001" x2="51.4995" y2="21.0001" gradientUnits="userSpaceOnUse">
<stop stop-color="white"/>
<stop offset="1" stop-color="white" stop-opacity="0"/>
</linearGradient>
</defs>
</svg>
