<svg width="572" height="351" viewBox="0 0 572 351" fill="none" xmlns="http://www.w3.org/2000/svg">
<path d="M363.155 318.049C361.153 318.231 359.059 318.413 357.056 318.505C355.599 318.596 354.143 318.687 352.686 318.687C351.138 318.778 349.5 318.778 347.952 318.778C347.406 318.778 346.768 318.778 346.222 318.778C345.949 318.778 345.676 318.778 345.403 318.778C344.856 318.778 344.31 318.778 343.764 318.778C340.487 318.778 337.3 318.687 334.205 318.505C238.249 314.772 220.132 273.082 155.221 252.783C93.2226 233.303 7.82726 106.865 50.3428 36.6829C54.0755 30.402 58.9006 24.6673 64.8182 19.3877C130.094 -38.5969 219.131 58.5296 251.086 63.6271C282.949 68.7247 388.009 -9.46809 461.569 29.5828C483.783 41.4164 498.714 72.5478 503.63 110.233C514.373 193.342 477.046 308.127 363.155 318.049Z" fill="url(#paint0_linear)"/>
<path d="M249.264 326.424C230.601 344.538 214.396 316.502 221.497 307.399C228.598 298.387 258.459 317.503 249.264 326.424Z" fill="#E4E3E5"/>
<path d="M251.814 345.631C251.359 346.45 250.903 347.178 250.357 347.724C245.714 353.004 238.977 348.089 237.794 343.81C237.521 342.991 237.521 342.172 237.794 341.443C239.523 336.801 254.454 340.715 251.814 345.631Z" fill="#E4E3E5"/>
<path d="M247.444 9.92068C270.295 6.3706 282.039 40.506 259.735 41.0521C237.43 41.5983 228.599 30.1288 230.602 20.844C232.696 11.6502 247.444 9.92068 247.444 9.92068Z" fill="#E4E3E5"/>
<path opacity="0.25" d="M363.155 318.049C361.153 318.231 359.059 318.413 357.056 318.504C355.599 318.595 354.143 318.686 352.686 318.686C351.138 318.778 349.5 318.778 347.952 318.778C347.406 318.778 346.768 318.778 346.222 318.778C345.949 318.778 345.676 318.778 345.403 318.778C344.856 318.778 344.31 318.778 343.764 318.778C340.487 318.778 337.3 318.686 334.205 318.504C238.249 314.772 220.132 273.082 155.221 252.783C93.2226 233.303 7.82726 106.865 50.3428 36.6829C46.8833 57.8013 41.7851 118.79 84.7559 169.765C137.65 232.483 262.921 272.718 283.951 273.264C304.89 273.901 262.648 241.677 354.962 216.645C447.185 191.612 402.485 239.948 413.774 258.335C425.154 276.723 473.587 222.015 481.689 158.933C484.694 135.63 492.614 119.154 503.63 110.233C514.373 193.341 477.046 308.127 363.155 318.049Z" fill="black" fill-opacity="0.11"/>
<path d="M132.188 275.175C131.004 283.095 128 295.657 125.451 305.306C123.812 311.313 122.356 316.138 121.536 317.867C121.354 318.323 121.172 318.505 121.081 318.596C119.806 319.051 119.442 318.778 119.078 317.23C118.987 316.866 118.896 316.32 118.805 315.774C118.714 315.319 118.623 314.772 118.441 314.226C117.621 310.403 116.893 287.919 116.802 284.733C116.802 284.46 116.802 284.369 116.802 284.369C116.802 284.369 110.885 280.728 106.697 277.36C105.149 276.086 103.783 274.902 102.964 273.901C102.509 273.355 102.236 272.627 101.872 271.716C100.233 266.346 100.87 255.695 104.057 254.785C104.057 254.785 124.176 257.789 132.552 267.984C133.007 268.439 132.825 271.261 132.188 275.175Z" fill="#A0A0A0"/>
<path opacity="0.25" d="M132.188 275.175C131.004 283.095 128 295.657 125.451 305.305C125.36 300.754 124.996 293.108 123.266 289.74C122.082 287.373 119.351 285.735 116.711 284.642C116.711 284.369 116.711 284.278 116.711 284.278C116.711 284.278 110.793 280.637 106.606 277.269L101.872 271.625C100.233 266.255 100.87 255.604 104.057 254.694C104.057 254.694 124.176 257.698 132.552 267.893C133.007 268.439 132.825 271.261 132.188 275.175Z" fill="black"/>
<path d="M137.559 298.296C137.195 299.298 136.83 299.844 136.375 299.662C136.011 299.48 135.556 299.025 135.101 298.205C131.914 292.835 127.362 275.084 127.362 275.084C127.362 275.084 113.706 282.184 104.42 280.637C97.6833 279.545 94.77 272.445 93.7686 268.621C93.9506 268.621 94.1327 268.621 94.3148 268.53C96.4087 268.166 101.416 262.523 104.42 258.335C124.176 257.607 138.287 261.612 139.379 265.071C140.29 268.257 139.653 292.198 137.559 298.296Z" fill="#A0A0A0"/>
<path d="M84.938 218.374C84.938 218.374 84.5739 212.73 80.4771 212.548C75.4699 209.999 69.8254 213.276 68.2778 218.556C66.8211 223.836 75.561 234.213 76.1072 239.128C76.7445 244.044 74.3774 250.052 72.5566 254.967C70.7358 259.883 74.1954 266.346 81.3875 266.346C88.5796 266.346 90.4915 255.24 89.0348 250.78C87.5782 246.32 83.6635 233.121 83.6635 233.121L84.938 218.374Z" fill="#A0A0A0"/>
<path d="M89.9453 219.193L96.2271 208.998C96.2271 208.998 97.4106 193.068 97.9568 189.882C98.5031 186.332 97.5927 182.873 99.0493 181.053C99.0493 181.053 101.052 201.807 101.143 202.717C101.325 203.628 101.963 206.814 101.143 210C100.324 213.277 94.7704 227.113 94.7704 227.113C94.7704 227.113 91.0378 220.65 89.9453 219.193Z" fill="#B7BABC"/>
<path d="M106.879 254.33C106.879 254.876 105.878 256.515 104.421 258.517C101.417 262.705 96.4095 268.348 94.3156 268.712C94.1335 268.712 93.9514 268.803 93.7693 268.803C91.2202 268.894 90.674 266.255 90.1278 262.705C90.1278 262.614 90.1278 262.431 90.0367 262.34C89.3994 258.335 83.4818 247.139 82.5714 245.864C82.3894 245.682 82.2073 245.591 82.0252 245.409C80.7507 244.863 78.3836 245.045 77.3822 241.677C76.4718 238.582 78.0195 234.122 79.3851 231.027C79.7492 230.208 80.1134 229.388 80.4775 228.842C81.1148 227.75 82.7535 225.838 84.4833 224.018C87.1234 221.287 90.1278 218.556 90.1278 218.556C90.1278 218.556 94.5887 224.746 95.9543 229.662C97.3199 234.577 99.4138 242.405 101.417 245.591C103.146 248.868 106.879 252.692 106.879 254.33Z" fill="#B7BABC"/>
<path opacity="0.25" d="M84.6645 230.663C82.2065 231.846 80.2946 231.482 79.2021 231.027C79.5663 230.208 79.9305 229.388 80.2946 228.842C80.9319 227.75 82.5706 225.838 84.3004 224.018C84.3914 224.018 84.5735 224.109 84.6645 224.109C88.8524 225.656 88.2151 228.842 84.6645 230.663Z" fill="black"/>
<path d="M113.98 202.808C113.98 202.808 107.334 206.814 106.605 207.906C105.877 208.998 103.874 223.836 102.6 225.383C101.325 226.931 95.8628 235.123 93.6778 237.308C91.4018 235.305 90.2183 228.751 90.6735 227.841C91.1287 227.022 96.8642 222.926 96.8642 222.926C96.8642 222.926 102.145 207.451 103.783 205.539C105.422 203.719 105.968 202.899 106.605 202.717C107.243 202.626 113.98 202.808 113.98 202.808Z" fill="#C4C4C4"/>
<path d="M79.2939 225.929C79.2939 225.929 80.9327 228.569 81.5699 228.842C82.2072 229.115 85.1205 228.296 85.2115 227.386C85.3026 226.475 83.3907 223.836 83.3907 223.563L79.2939 225.929Z" fill="#B7BABC"/>
<path d="M84.665 225.747C84.4829 225.929 84.3918 226.02 84.2098 226.111C83.1173 226.567 81.4786 226.749 79.8399 226.658C79.2936 226.658 78.7474 226.567 78.2011 226.475C76.9266 226.293 75.8341 225.929 75.652 225.474C75.1058 224.382 79.8399 220.559 81.3875 214.733C82.9352 215.734 84.0277 217.282 84.665 218.92C85.8485 221.651 85.7574 224.655 84.665 225.747Z" fill="#C4C4C4"/>
<path d="M127.544 331.613C127.544 332.796 116.619 327.061 116.711 325.787C116.893 324.421 118.987 317.139 118.987 317.139C119.351 318.687 119.624 318.96 120.989 318.504C121.08 318.504 121.263 318.231 121.445 317.776C121.445 317.776 127.544 330.429 127.544 331.613Z" fill="#B7BABC"/>
<path d="M143.477 314.317C142.384 314.954 134.828 308.218 134.282 307.035C133.827 305.943 135.01 298.205 135.01 298.205C135.465 299.025 135.921 299.571 136.285 299.662C136.74 299.844 137.104 299.298 137.468 298.296C138.925 301.391 144.478 313.771 143.477 314.317Z" fill="#B7BABC"/>
<path opacity="0.25" d="M92.4942 250.143C92.7673 253.511 91.1286 259.974 90.0361 262.705C90.0361 262.614 90.0361 262.432 89.9451 262.34C89.3078 258.335 83.3902 247.139 82.4798 245.864C82.2978 245.682 82.1157 245.591 81.9336 245.409C86.7587 245.682 93.7688 237.308 93.7688 237.308C96.3179 240.767 92.13 244.954 92.4942 250.143Z" fill="black"/>
<path opacity="0.25" d="M84.6652 218.92C84.6652 218.92 83.3906 217.646 82.2071 216.644C81.934 219.739 77.0178 224.018 78.1103 226.475C76.8358 226.293 75.7433 225.929 75.5612 225.474C75.015 224.382 79.749 220.559 81.2967 214.733C82.9354 215.734 84.0279 217.282 84.6652 218.92Z" fill="black"/>
<path d="M434.804 322.692C434.804 322.692 430.98 324.33 428.704 329.883C426.428 335.527 426.064 343.537 427.066 344.538C428.067 345.54 435.714 337.347 436.443 332.432C437.171 327.607 436.261 323.784 436.261 323.784L434.804 322.692Z" fill="#B7BABC"/>
<path d="M472.768 205.539C469.946 207.906 468.853 212.002 468.853 212.002C468.853 212.002 462.116 207.633 461.57 206.723C461.024 205.903 459.203 190.247 458.748 186.332C458.293 182.418 459.658 178.868 460.842 180.142C462.025 181.417 461.661 186.059 461.57 186.332C461.479 186.605 465.667 200.351 466.213 200.897C466.668 201.443 472.768 205.539 472.768 205.539Z" fill="#C4C4C4"/>
<path d="M518.38 227.568C518.38 227.659 518.289 227.75 518.289 227.932C506.181 231.573 503.54 231.573 503.54 231.573C503.54 231.573 502.721 233.121 501.538 235.305C499.99 238.309 497.714 242.678 496.166 246.138C495.165 248.413 494.345 250.325 494.254 251.144C494.163 252.054 493.162 252.6 491.705 252.874C488.155 253.42 481.691 252.054 478.413 248.777C475.318 245.682 474.135 242.952 473.952 240.858C473.861 239.766 473.953 238.855 474.135 238.218C474.317 237.581 474.863 236.762 475.591 235.578C476.866 233.485 478.687 230.208 479.233 224.564C479.324 223.472 479.415 222.197 479.415 220.832C469.127 213.823 468.945 212.002 468.945 212.002C468.945 212.002 470.038 207.906 472.86 205.539C472.86 205.539 485.606 214.46 486.789 214.915C487.153 215.006 488.246 215.461 489.793 215.916C492.16 216.736 495.347 217.828 497.714 218.647C498.897 219.102 499.899 219.375 500.354 219.648C502.539 220.468 517.014 219.739 517.743 219.648C518.38 219.648 519.017 225.383 518.38 227.568Z" fill="#B7BABC"/>
<path opacity="0.25" d="M497.622 218.647C496.802 220.468 495.164 222.47 492.615 221.742C489.428 220.832 489.428 217.555 489.61 215.916C492.068 216.736 495.255 217.828 497.622 218.647Z" fill="black"/>
<path d="M547.422 201.625C545.419 206.267 537.68 211.274 537.68 211.274C537.68 211.274 528.485 223.381 526.3 224.928C525.026 225.838 521.293 226.84 518.289 227.568C518.926 225.383 518.198 219.648 517.561 219.648C517.834 219.648 523.387 218.92 524.389 218.374C525.39 217.919 533.584 210.182 533.766 209.909C533.948 209.635 536.315 202.626 536.77 202.353C537.225 202.08 537.862 204.993 537.862 204.993C537.862 204.993 544.326 201.716 547.422 201.625Z" fill="#C4C4C4"/>
<path d="M499.353 210.182C499.353 210.637 499.171 211.183 498.989 211.638C498.624 212.275 498.26 212.821 497.805 213.368C497.168 214.187 496.439 214.824 495.802 215.37C493.799 216.827 491.979 217.009 491.432 216.645C491.341 216.554 491.25 216.463 491.068 216.372C488.519 214.369 488.428 210.728 488.61 208.543C488.61 208.179 488.701 207.906 488.701 207.633C488.792 207.087 488.883 206.723 488.883 206.723C490.249 208.179 495.711 206.358 497.077 206.632C498.078 206.723 499.444 208.452 499.353 210.182Z" fill="#C4C4C4"/>
<path d="M495.801 215.279C495.528 217.009 496.074 218.92 494.709 219.831C493.161 220.832 491.795 220.013 491.158 219.284C490.794 218.829 490.885 217.373 490.976 216.372C491.067 216.463 491.158 216.554 491.34 216.645C491.886 216.918 493.798 216.736 495.801 215.279Z" fill="#B7BABC"/>
<path d="M502.173 210.091C501.445 211.547 499.442 212.457 497.895 213.277C498.259 212.821 498.714 212.184 499.078 211.547C500.262 209.453 498.532 206.723 497.166 206.45C495.801 206.176 490.338 207.997 488.973 206.541C488.973 206.541 488.882 206.905 488.791 207.36C486.424 206.632 481.872 204.629 481.69 200.442C481.416 194.798 485.24 193.159 489.792 194.434C494.344 195.708 496.165 200.442 496.165 200.442C496.165 200.442 500.626 197.893 503.63 200.533C506.543 203.173 502.082 206.723 502.082 206.723C502.082 206.723 503.357 207.724 502.173 210.091Z" fill="#A0A0A0"/>
<path d="M491.704 252.783C490.703 255.24 488.973 259.064 486.515 263.433C482.509 270.351 445.638 319.779 436.625 327.061C436.443 327.243 436.17 327.243 435.988 327.243C434.713 327.243 433.075 325.423 432.983 325.059C432.71 321.691 468.398 259.974 468.944 258.972L444.819 264.525C444.819 264.525 436.443 280.455 430.707 288.01C430.161 288.647 429.706 289.285 429.251 289.831C427.885 291.378 426.793 292.107 426.155 291.833C426.064 291.742 426.064 291.378 426.064 290.65C426.702 284.187 434.713 252.874 437.627 248.595C440.085 244.954 461.479 242.679 470.856 241.313C472.131 241.131 473.223 240.949 473.951 240.767C474.224 242.861 475.317 245.5 478.412 248.686C481.69 251.963 488.154 253.42 491.704 252.783Z" fill="#A0A0A0"/>
<path d="M431.618 296.385C430.071 298.478 414.685 306.671 416.051 302.028C417.416 297.386 425.974 290.832 425.974 290.832C425.883 291.56 425.883 291.924 426.065 292.015C426.702 292.289 427.795 291.469 429.16 290.013C429.889 292.197 432.893 294.564 431.618 296.385Z" fill="#B7BABC"/>
<path opacity="0.25" d="M491.705 252.783C490.703 255.24 488.973 259.064 486.515 263.433C482.51 270.351 445.639 319.779 436.626 327.061C436.443 327.243 436.17 327.243 435.988 327.243C446.276 310.403 480.598 260.793 477.047 252.874C474.68 247.685 472.404 243.771 470.856 241.313C472.131 241.131 473.224 240.949 473.952 240.767C474.225 242.861 475.317 245.5 478.413 248.686C481.69 251.963 488.154 253.42 491.705 252.783Z" fill="black"/>
<path opacity="0.25" d="M468.854 259.063L444.728 264.616C444.728 264.616 436.353 280.546 430.617 288.101C434.623 278.725 441.451 263.069 442.726 261.612C444.546 259.519 463.847 251.144 466.123 252.965C468.308 254.785 468.854 259.063 468.854 259.063Z" fill="black"/>
<path d="M501.536 235.305C499.988 238.309 497.712 242.678 496.165 246.138C490.247 246.046 481.963 244.135 475.59 235.578C476.864 233.485 478.685 230.208 479.231 224.564C483.055 228.023 491.34 234.395 501.536 235.305Z" fill="#A0A0A0"/>
<path opacity="0.25" d="M499.352 210.182C499.17 209.362 498.897 208.634 498.351 208.179C496.712 206.905 492.615 208.998 489.884 208.634C489.429 208.543 488.974 208.543 488.609 208.452C488.609 208.088 488.7 207.815 488.7 207.542C488.791 206.996 488.883 206.632 488.883 206.632C490.248 208.088 495.711 206.267 497.076 206.541C498.078 206.723 499.443 208.452 499.352 210.182Z" fill="black"/>
<path d="M50.4338 134.174C50.4338 134.174 96.1358 99.5831 26.0351 58.3475C13.1075 85.2917 46.7922 111.235 50.4338 134.174Z" fill="url(#paint1_linear)"/>
<path opacity="0.45" d="M26.0352 58.3475C26.0352 58.3475 29.1305 72.0017 42.1492 86.5661C55.1679 101.222 62.36 110.506 50.4338 134.174" stroke="white" stroke-width="1.2195" stroke-miterlimit="10" stroke-linecap="round" stroke-linejoin="round"/>
<path opacity="0.45" d="M24.5781 81.1044L38.8714 82.6519L44.2427 70.9093" stroke="white" stroke-width="1.2195" stroke-miterlimit="10" stroke-linecap="round" stroke-linejoin="round"/>
<path opacity="0.45" d="M32.6807 98.9458L50.2513 96.306L54.5302 80.9224" stroke="white" stroke-width="1.2195" stroke-miterlimit="10" stroke-linecap="round" stroke-linejoin="round"/>
<path opacity="0.45" d="M40.9658 112.509L56.4426 111.417L62.7243 94.1215" stroke="white" stroke-width="1.2195" stroke-miterlimit="10" stroke-linecap="round" stroke-linejoin="round"/>
<path d="M67.0954 169.765C67.0954 169.765 99.9608 108.413 1.63783 98.4907C1.00055 134.72 51.3456 146.28 67.0954 169.765Z" fill="url(#paint2_linear)"/>
<path opacity="0.45" d="M1.5459 98.4907C1.5459 98.4907 11.9244 111.963 33.6829 121.43C55.5325 130.897 68.187 137.633 67.0035 169.765" stroke="white" stroke-width="1.2195" stroke-miterlimit="10" stroke-linecap="round" stroke-linejoin="round"/>
<path opacity="0.45" d="M11.5605 124.343L28.0387 118.79V103.042" stroke="white" stroke-width="1.2195" stroke-miterlimit="10" stroke-linecap="round" stroke-linejoin="round"/>
<path opacity="0.45" d="M29.5859 139.908L47.5208 128.075L44.5165 108.959" stroke="white" stroke-width="1.2195" stroke-miterlimit="10" stroke-linecap="round" stroke-linejoin="round"/>
<path opacity="0.45" d="M45.5176 150.65L62.0868 141.547L60.175 119.336" stroke="white" stroke-width="1.2195" stroke-miterlimit="10" stroke-linecap="round" stroke-linejoin="round"/>
<path d="M375.81 279.818C375.082 285.917 373.716 291.651 372.169 296.658C370.53 301.938 368.709 306.58 366.888 310.494C365.523 313.407 364.248 315.956 363.065 317.958C361.062 318.14 358.968 318.323 356.965 318.414C355.508 318.505 354.052 318.596 352.595 318.596C351.048 318.687 349.409 318.687 347.861 318.687C347.315 318.687 346.678 318.687 346.131 318.687C345.858 318.687 345.585 318.687 345.312 318.687C344.766 318.687 344.22 318.687 343.673 318.687C343.582 318.505 343.582 318.231 343.491 318.049C343.491 318.049 343.582 316.502 343.946 313.862C344.311 311.313 345.039 307.763 346.222 303.394C346.587 302.12 346.951 300.845 347.406 299.48C347.77 298.296 348.225 297.113 348.68 295.839C349.591 293.472 350.592 290.923 351.776 288.283C353.961 283.55 356.692 278.452 360.06 273.264C364.157 267.074 369.255 260.793 375.628 254.603C376.903 263.615 376.812 272.08 375.81 279.818Z" fill="url(#paint3_linear)"/>
<path opacity="0.45" d="M352.687 318.596C353.233 316.684 353.961 314.317 354.872 311.677C354.963 311.495 354.963 311.313 355.054 311.222C356.328 307.49 357.785 303.212 359.423 298.661C361.244 293.654 363.156 288.283 365.068 283.186C370.621 268.166 375.72 254.694 375.72 254.694" stroke="white" stroke-width="1.2195" stroke-miterlimit="10" stroke-linecap="round" stroke-linejoin="round"/>
<path opacity="0.45" d="M360.061 273.264L364.977 283.186L375.81 279.818" stroke="white" stroke-width="1.2195" stroke-miterlimit="10" stroke-linecap="round" stroke-linejoin="round"/>
<path opacity="0.45" d="M351.594 288.101L359.332 298.661L372.26 296.658" stroke="white" stroke-width="1.2195" stroke-miterlimit="10" stroke-linecap="round" stroke-linejoin="round"/>
<path opacity="0.45" d="M346.223 303.394L354.871 311.678L366.98 310.494" stroke="white" stroke-width="1.2195" stroke-miterlimit="10" stroke-linecap="round" stroke-linejoin="round"/>
<path d="M357.057 318.414C355.6 318.505 354.143 318.596 352.687 318.596C351.139 318.687 349.5 318.687 347.953 318.687C347.406 318.687 346.769 318.687 346.223 318.687C345.95 318.687 345.677 318.687 345.403 318.687C344.857 318.687 344.311 318.687 343.765 318.687C340.487 318.687 337.301 318.596 334.206 318.414C332.294 314.59 330.382 310.13 328.652 304.941C327.013 300.026 325.557 294.382 324.555 288.283C323.372 281.001 322.735 272.809 323.281 263.979C330.291 269.623 336.026 275.904 340.578 282.276C343.856 286.827 346.587 291.469 348.772 295.839C348.954 296.294 349.227 296.658 349.409 297.113C351.867 302.12 353.688 306.762 354.963 310.858C354.963 310.949 355.054 311.131 355.054 311.222C355.145 311.404 355.145 311.495 355.236 311.677C355.964 314.226 356.601 316.502 357.057 318.414Z" fill="url(#paint4_linear)"/>
<path opacity="0.45" d="M346.134 318.687C345.405 317.139 344.677 315.501 343.949 313.862C343.038 311.769 342.128 309.584 341.126 307.399C339.033 302.484 336.848 297.295 334.663 292.198C328.472 277.36 323.101 263.979 323.101 263.979" stroke="white" stroke-width="1.2195" stroke-miterlimit="10" stroke-linecap="round" stroke-linejoin="round"/>
<path opacity="0.45" d="M324.465 288.283L334.752 292.198L340.488 282.276" stroke="white" stroke-width="1.2195" stroke-miterlimit="10" stroke-linecap="round" stroke-linejoin="round"/>
<path opacity="0.45" d="M328.379 304.941L341.216 307.399L349.318 297.113" stroke="white" stroke-width="1.2195" stroke-miterlimit="10" stroke-linecap="round" stroke-linejoin="round"/>
<path opacity="0.45" d="M354.872 310.858L354.417 311.313L347.953 318.687" stroke="white" stroke-width="1.2195" stroke-miterlimit="10" stroke-linecap="round" stroke-linejoin="round"/>
<path d="M483.147 55.1616C483.147 55.1616 488.974 39.3228 507.546 39.3228C526.118 39.3228 531.216 60.4412 531.216 60.4412C531.216 60.4412 532.491 55.3436 542.869 55.1616C553.248 54.9795 556.343 67.0862 556.343 67.0862C556.343 67.0862 566.085 62.1707 571.092 77.5544H456.928C456.928 77.4633 462.026 52.9769 483.147 55.1616Z" fill="url(#paint5_linear)"/>
<path d="M110.156 16.8388C110.156 16.8388 104.33 1 85.7575 1C67.1853 1 62.0871 22.1184 62.0871 22.1184C62.0871 22.1184 60.8126 17.0209 50.434 16.8388C40.1465 16.7478 37.0512 28.7634 37.0512 28.7634C37.0512 28.7634 27.2189 23.8479 22.3027 39.2316H136.376C136.376 39.2316 131.277 14.7452 110.156 16.8388Z" fill="url(#paint6_linear)"/>
<path d="M204.771 146.693C204.771 155.707 203.099 163.684 199.756 170.624C196.413 177.564 191.652 182.917 185.474 186.684C179.338 190.408 172.334 192.27 164.463 192.27C156.592 192.27 149.609 190.471 143.516 186.874C137.422 183.235 132.661 178.051 129.233 171.322C125.848 164.594 124.071 156.871 123.901 148.153V142.948C123.901 133.892 125.552 125.915 128.853 119.018C132.196 112.077 136.956 106.724 143.135 102.958C149.355 99.1917 156.423 97.3086 164.336 97.3086C172.165 97.3086 179.147 99.1706 185.283 102.895C191.419 106.618 196.18 111.929 199.565 118.827C202.993 125.683 204.728 133.554 204.771 142.44V146.693ZM182.109 142.821C182.109 133.638 180.565 126.677 177.476 121.938C174.429 117.156 170.049 114.765 164.336 114.765C153.164 114.765 147.261 123.144 146.626 139.901L146.562 146.693C146.562 155.749 148.065 162.711 151.069 167.577C154.074 172.444 158.538 174.877 164.463 174.877C170.091 174.877 174.429 172.486 177.476 167.704C180.522 162.922 182.067 156.046 182.109 147.074V142.821ZM212.578 156.024C212.578 149.169 213.911 143.075 216.577 137.743C219.243 132.369 223.073 128.243 228.066 125.365C233.06 122.488 238.921 121.049 245.649 121.049C255.933 121.049 264.036 124.244 269.961 130.634C275.885 136.981 278.848 145.635 278.848 156.596V157.357C278.848 168.064 275.864 176.57 269.897 182.875C263.973 189.138 255.933 192.27 245.776 192.27C236.001 192.27 228.151 189.35 222.227 183.51C216.302 177.628 213.107 169.672 212.642 159.643L212.578 156.024ZM233.97 157.357C233.97 163.705 234.964 168.36 236.953 171.322C238.942 174.285 241.883 175.766 245.776 175.766C253.394 175.766 257.287 169.905 257.456 158.183V156.024C257.456 143.71 253.521 137.553 245.649 137.553C238.498 137.553 234.626 142.864 234.033 153.485L233.97 157.357ZM352.036 157.167C352.036 167.831 349.624 176.358 344.8 182.748C340.018 189.096 333.543 192.27 325.376 192.27C319.071 192.27 313.887 189.963 309.824 185.351V217.406H288.433V122.318H308.428L309.062 128.666C313.167 123.588 318.563 121.049 325.249 121.049C333.713 121.049 340.293 124.18 344.99 130.443C349.688 136.664 352.036 145.233 352.036 156.151V157.167ZM330.645 155.834C330.645 143.646 327.09 137.553 319.98 137.553C314.902 137.553 311.517 139.372 309.824 143.012V170.053C311.686 173.861 315.114 175.766 320.107 175.766C326.921 175.766 330.433 169.883 330.645 158.119V155.834ZM397.485 171.703C397.485 169.883 396.533 168.424 394.629 167.323C392.725 166.223 389.106 165.08 383.774 163.896C378.442 162.711 374.041 161.166 370.571 159.262C367.101 157.315 364.456 154.966 362.637 152.216C360.817 149.465 359.907 146.312 359.907 142.758C359.907 136.452 362.51 131.269 367.715 127.206C372.92 123.101 379.733 121.049 388.154 121.049C397.21 121.049 404.489 123.101 409.99 127.206C415.492 131.311 418.242 136.706 418.242 143.393H396.787C396.787 137.891 393.888 135.141 388.091 135.141C385.848 135.141 383.965 135.775 382.441 137.045C380.918 138.272 380.156 139.817 380.156 141.679C380.156 143.583 381.087 145.128 382.949 146.312C384.811 147.497 387.773 148.471 391.836 149.232C395.941 149.994 399.538 150.904 402.627 151.962C412.952 155.517 418.115 161.885 418.115 171.068C418.115 177.331 415.322 182.431 409.736 186.366C404.193 190.302 396.999 192.27 388.154 192.27C382.272 192.27 377.025 191.212 372.412 189.096C367.799 186.98 364.202 184.102 361.621 180.463C359.04 176.824 357.749 172.994 357.749 168.974H377.744C377.829 172.147 378.887 174.475 380.918 175.956C382.949 177.395 385.552 178.114 388.726 178.114C391.646 178.114 393.825 177.522 395.264 176.337C396.745 175.152 397.485 173.607 397.485 171.703ZM481.782 161.737H464.453L461.724 98.5781H484.512L481.782 161.737ZM461.089 181.415C461.089 178.284 462.21 175.723 464.453 173.734C466.738 171.703 469.574 170.688 472.959 170.688C476.344 170.688 479.159 171.703 481.401 173.734C483.687 175.723 484.829 178.284 484.829 181.415C484.829 184.547 483.687 187.128 481.401 189.159C479.159 191.148 476.344 192.143 472.959 192.143C469.574 192.143 466.738 191.148 464.453 189.159C462.21 187.128 461.089 184.547 461.089 181.415Z" fill="black"/>
<defs>
<linearGradient id="paint0_linear" x1="264.553" y1="0.032009" x2="303.659" y2="557.796" gradientUnits="userSpaceOnUse">
<stop offset="4.1e-07" stop-color="#E4E3E5" stop-opacity="0.03"/>
<stop offset="1" stop-color="#E0E0E0"/>
</linearGradient>
<linearGradient id="paint1_linear" x1="44.084" y1="58.3475" x2="44.084" y2="134.174" gradientUnits="userSpaceOnUse">
<stop stop-color="#717C82"/>
<stop offset="1" stop-color="#C4C4C4"/>
</linearGradient>
<linearGradient id="paint2_linear" x1="37.0016" y1="98.4907" x2="37.0016" y2="169.765" gradientUnits="userSpaceOnUse">
<stop stop-color="#717C82"/>
<stop offset="1" stop-color="#C4C4C4"/>
</linearGradient>
<linearGradient id="paint3_linear" x1="360.032" y1="254.603" x2="360.032" y2="318.687" gradientUnits="userSpaceOnUse">
<stop stop-color="#717C82"/>
<stop offset="1" stop-color="#C4C4C4"/>
</linearGradient>
<linearGradient id="paint4_linear" x1="340.07" y1="263.979" x2="340.07" y2="318.687" gradientUnits="userSpaceOnUse">
<stop stop-color="#717C82"/>
<stop offset="1" stop-color="#C4C4C4"/>
</linearGradient>
<linearGradient id="paint5_linear" x1="514.01" y1="39.3228" x2="514.01" y2="77.5544" gradientUnits="userSpaceOnUse">
<stop stop-color="#E4E3E5"/>
<stop offset="1" stop-color="#E4E3E5" stop-opacity="0"/>
</linearGradient>
<linearGradient id="paint6_linear" x1="79.3392" y1="1" x2="79.3392" y2="39.2316" gradientUnits="userSpaceOnUse">
<stop stop-color="#E4E3E5"/>
<stop offset="1" stop-color="#E4E3E5" stop-opacity="0"/>
</linearGradient>
</defs>
</svg>
